<svg width="16" height="16" viewBox="0 0 16 16" fill="none" xmlns="http://www.w3.org/2000/svg">
    <g clip-path="url(#clip0)">
        <path d="M9.9 0.200195L9.7 1.2002C12.7 2.0002 15 4.7002 15 8.0002C15 11.9002 11.9 15.0002 8 15.0002C4.1 15.0002 1 11.9002 1 8.0002C1 4.7002 3.3 2.0002 6.3 1.2002L6.1 0.200195C2.6 1.1002 0 4.3002 0 8.0002C0 12.4002 3.6 16.0002 8 16.0002C12.4 16.0002 16 12.4002 16 8.0002C16 4.3002 13.4 1.1002 9.9 0.200195V0.200195Z" fill="#470075"/>
    </g>
    <defs>
        <clipPath id="clip0">
            <rect width="16" height="16" fill="white"/>
        </clipPath>
    </defs>
</svg>
